Notebook 17 â€“ Solutions
…
This time, we will look into the temporal components of the data and see how they can be integrated into the spatial visualisations.

Exploring the Corpus

Univariate Exploration

Letâ€™s start with a few simple things to try to understand the data. Produce a table showing the number of crimes associated with each primary_type. Sort the data from most common to least common. Take a moment to look at the types.

crimes %>%
  group_by(primary_type) %>%
  summarize(sm_count()) %>%
  arrange(desc(count))

## # A tibble: 35 x 2
##    primary_type          count
##    <chr>                 <int>
##  1 THEFT               1382182
##  2 BATTERY             1196509
##  3 CRIMINAL DAMAGE      745552
##  4 NARCOTICS            657216
##  5 ASSAULT              413987
##  6 OTHER OFFENSE        404447
##  7 BURGLARY             372109
##  8 MOTOR VEHICLE THEFT  295965
##  9 DECEPTIVE PRACTICE   262262
## 10 ROBBERY              246167
## # â€¦ with 25 more rows

Repeat with the description variable. Notice that there are far more categories here.

crimes %>%
  group_by(description) %>%
  summarize(sm_count()) %>%
  arrange(desc(count))

## # A tibble: 529 x 2
##    description                   count
##    <chr>                         <int>
##  1 SIMPLE                       718598
##  2 DOMESTIC BATTERY SIMPLE      557804
##  3 $500 AND UNDER               505627
##  4 TO VEHICLE                   360304
##  5 TO PROPERTY                  341808
##  6 OVER $500                    328967
##  7 POSS: CANNABIS 30GMS OR LESS 256918
##  8 FORCIBLE ENTRY               249880
##  9 FROM BUILDING                240867
## 10 AUTOMOBILE                   234564
## # â€¦ with 519 more rows

And again with location_desc:

crimes %>%
  group_by(location_desc) %>%
  summarize(sm_count()) %>%
  arrange(desc(count))

## # A tibble: 214 x 2
##    location_desc                    count
##    <chr>                            <int>
##  1 STREET                         1670527
##  2 RESIDENCE                      1083469
##  3 APARTMENT                       719178
##  4 SIDEWALK                        657208
##  5 OTHER                           239351
##  6 PARKING LOT/GARAGE(NON.RESID.)  181986
##  7 ALLEY                           145825
##  8 SCHOOL, PUBLIC, BUILDING        131404
##  9 RESIDENCE-GARAGE                122185
## 10 SMALL RETAIL STORE              121035
## # â€¦ with 204 more rows
…
Create a dataset showing the percentage of crimes that result in an arrest. Note: It is best to do this using a call to pivot_wider.

crimes %>%
  group_by(comarea, arrest) %>%
  summarize(sm_count()) %>%
  pivot_wider(values_from = count, names_from = arrest, names_prefix = "arrest_") %>%
  mutate(percentage = 100 * arrest_TRUE / (arrest_TRUE + arrest_FALSE))

## # A tibble: 78 x 4
## # Groups:   comarea [78]
##    comarea arrest_FALSE arrest_TRUE percentage
##      <dbl>        <int>       <int>      <dbl>
##  1       0           62           7       10.1
##  2       1        72414       27496       27.5
##  3       2        67911       13979       17.1
##  4       3        65066       29705       31.3
##  5       4        37339        8578       18.7
##  6       5        31340        7349       19.0
##  7       6       104833       24746       19.1
##  8       7        87465       14275       14.0
##  9       8       165754       60088       26.6
## 10       9         5537         755       12.0
## # â€¦ with 68 more rows
…
