05. Summarizing Data
…
Here, we see that vegetables have a low amount of total fat, meats have a relatively large amount of fat, and the confidence interval for dairy products is very large (in this case, it is because there are not many dairy products in the dataset). As with the barplot, we can draw the confidence intervals horizontally by adding a coord_flip() layer to the plot.

Multiple groups

As mentioned above, it is possible to group a dataset by multiple variables. To do this, we can provide additional variables to the group_by function separated by commas. For example, we could group the food dataset into food group and color, and summarize each combination of the two:

food %>%
  group_by(food_group, color) %>%
  summarize(sm_count(), sm_mean(calories))

## # A tibble: 21 x 4
## # Groups:   food_group [6]
##    food_group color  count calories_mean
##    <chr>      <chr>  <int>         <dbl>
##  1 dairy      white      3         124. 
##  2 dairy      yellow     1         350  
##  3 fish       pink       2         158. 
##  4 fish       red        3         112. 
##  5 fish       white      9         187. 
##  6 fruit      green      4          77.2
##  7 fruit      orange     3          44.7
##  8 fruit      pink       2          35.5
##  9 fruit      purple     2          57.5
## 10 fruit      red        2          42  
## #  with 11 more rows
…
