14. Restructuring Data II
…
14. Restructuring Data II

Temporal ordering

In showing the application of line graphs, we have shown several of datasets that have a temporal aspect. So far, however, all of these have been organized relatively simply. There has been one row for each year within a fixed range, and we have been able to treat the year variable has any other continuous measurement, with the only caveat that it makes sense to connect dots with a line when building a visualization. In the next few sections we will look at another dataset related to our collection of food items. For each item in the food dataset, we have grabbed page view statistics for a 90-day period from Wikipedia. That is, we have a record of how many people looked at a particular page each day, for each item. The data are arranged with one row for each combination of item and day:

page_views

## # A tibble: 3,660 x 5
##    item   year month   day views
##    <chr> <dbl> <dbl> <dbl> <dbl>
##  1 Apple  2019    12    28  2458
##  2 Apple  2019    12    29  2659
##  3 Apple  2019    12    30  2849
##  4 Apple  2019    12    31  2589
##  5 Apple  2020     1     1  2579
##  6 Apple  2020     1     2  3078
##  7 Apple  2020     1     3  3034
##  8 Apple  2020     1     4  2820
##  9 Apple  2020     1     5  2939
## 10 Apple  2020     1     6  3172
## #  with 3,650 more rows
…
\[ year\_frac = year + \frac{month - 1}{12} + \frac{day - 1}{12 \cdot 31} + + \frac{hour - 1}{24 \cdot 12 \cdot 31}\]

If we are only interested in the time since a specific event, say the start of an experiment, we can use the same approach but take the difference relative to a specific fractional year.

Fractional times have a number of important applications. Fractional times are convenient because they can represent an arbitrarily precise date or date-time with an ordinary number. This means that they can be used in other models and applications without any special treatment. They may require different model assumptions, but at least the code should work with minimal effort. However, particularly when we want to create nice publishable visualizations, it can be useful to work with specific functions for manipulating dates and times.

Date objects

Most of the variables that we have worked with so far are either characters (chr) or numbers (dbl). Dates are in some ways like numbers: the have a natural ordering, we can talk about the difference between two numbers, and it makes sense to color and plot them on a continuous scale. However, they do have some unique properties, particularly when we want to extract information such as the day of the week from a date, that require a unique data type. To create a date object in R, we can use the function make_date, passing in a variable for the year, month, and day.

page_views %>%
  filter(item %in% c("Apple")) %>%
  mutate(date = make_date(year, month, day))

## # A tibble: 60 x 6
##    item   year month   day views date      
##    <chr> <dbl> <dbl> <dbl> <dbl> <date>    
##  1 Apple  2019    12    28  2458 2019-12-28
##  2 Apple  2019    12    29  2659 2019-12-29
##  3 Apple  2019    12    30  2849 2019-12-30
##  4 Apple  2019    12    31  2589 2019-12-31
##  5 Apple  2020     1     1  2579 2020-01-01
##  6 Apple  2020     1     2  3078 2020-01-02
##  7 Apple  2020     1     3  3034 2020-01-03
##  8 Apple  2020     1     4  2820 2020-01-04
##  9 Apple  2020     1     5  2939 2020-01-05
## 10 Apple  2020     1     6  3172 2020-01-06
## #  with 50 more rows
…
Here we see that the number of page views is the lowest on Saturday and the number of views is highest on Tuesday. We can also use the make_date function to filter the dataset. For example, we can filter the dataset to only include those dates after 15 January 2020:

page_views %>%
  filter(item %in% c("Apple")) %>%
  mutate(date = make_date(year, month, day)) %>%
  filter(date > make_date(2020, 1, 15))

## # A tibble: 41 x 6
##    item   year month   day views date      
##    <chr> <dbl> <dbl> <dbl> <dbl> <date>    
##  1 Apple  2020     1    16  3323 2020-01-16
##  2 Apple  2020     1    17  3184 2020-01-17
##  3 Apple  2020     1    18  2569 2020-01-18
##  4 Apple  2020     1    19  2890 2020-01-19
##  5 Apple  2020     1    20  3087 2020-01-20
##  6 Apple  2020     1    21  3311 2020-01-21
##  7 Apple  2020     1    22  3211 2020-01-22
##  8 Apple  2020     1    23  3314 2020-01-23
##  9 Apple  2020     1    24  3070 2020-01-24
## 10 Apple  2020     1    25  2652 2020-01-25
## #  with 31 more rows

Note that you can leave some of the values in the make_date function empty. For example, passing only the year and month. This defaults to the first day of the month. This shorthand is useful in both creating the original date object as well as when filtering the data.

Date times

A similar approach to dates can also apply the objects that include time data. As an example, we will look at another related dataset from Wikipedia. Here, for each of the same pages as considered in the previous set, we have a record of the last 500 edits made to each page. For every edit, we have the exact second that an edit was made:

page_revisions

## # A tibble: 30,415 x 10
##    item   year month   day  hour minute second user            page_size
##    <chr> <dbl> <dbl> <dbl> <dbl>  <dbl>  <dbl> <chr>               <dbl>
##  1 Apple  2020     1    16    18      5     15 Zefr                74204
##  2 Apple  2020     1    16    18      2     55 TarantinQuenti     74263
##  3 Apple  2020     1    14    14     48     14 Zefr                74204
##  4 Apple  2020     1    14    14     41     17 DRosenbach          74230
##  5 Apple  2020     1    11    15     54     42 Zefr                74204
##  6 Apple  2020     1    11    15     22      5 Thue                74265
##  7 Apple  2020     1    11    15     21     41 Thue                74273
##  8 Apple  2020     1    11    10     53     30 Peter coxhead       73464
##  9 Apple  2020     1    11    10     17     43 Thue                73460
## 10 Apple  2019    12    31    16     29     19 Plantdrew           73093
## #  with 30,405 more rows, and 1 more variable: comment <chr>

Similar to the approach in the previous section, we can use the function make_datetime to create a date-time object. Here we will fill it in with the year, month, day, hour, minute, and second. As mentioned above, however, you can supply on the subset of precision matching your data.

page_revisions %>%
  mutate(time = make_datetime(year, month, day, hour, minute, second)) %>%
  select(item, time, year, month, day, hour, minute, second)

## # A tibble: 30,415 x 8
##    item  time                 year month   day  hour minute second
##    <chr> <dttm>              <dbl> <dbl> <dbl> <dbl>  <dbl>  <dbl>
##  1 Apple 2020-01-16 18:05:15  2020     1    16    18      5     15
##  2 Apple 2020-01-16 18:02:55  2020     1    16    18      2     55
##  3 Apple 2020-01-14 14:48:14  2020     1    14    14     48     14
##  4 Apple 2020-01-14 14:41:17  2020     1    14    14     41     17
##  5 Apple 2020-01-11 15:54:42  2020     1    11    15     54     42
##  6 Apple 2020-01-11 15:22:05  2020     1    11    15     22      5
##  7 Apple 2020-01-11 15:21:41  2020     1    11    15     21     41
##  8 Apple 2020-01-11 10:53:30  2020     1    11    10     53     30
##  9 Apple 2020-01-11 10:17:43  2020     1    11    10     17     43
## 10 Apple 2019-12-31 16:29:19  2019    12    31    16     29     19
## #  with 30,405 more rows
…
In the previous examples investigating days of the week, notice that the days of the week are printed using English names. The same thing occurs when printing the names of months. Depending on your audience, it may be desirable to show plots using the names of weekdays and months in another language. This can be controlled by specifying the locale property when calling the functions wday and month when label = TRUE. Here, for example, are the days of the weeks provided in six different languages:

page_revisions %>%
  mutate(time = make_datetime(year, month, day, hour, minute, second)) %>%
  mutate(
    wday_en = wday(time, label = TRUE, abbr = FALSE, locale = "en_US.UTF-8"),
    wday_fr = wday(time, label = TRUE, abbr = FALSE, locale = "fr_FR.UTF-8"),
    wday_de = wday(time, label = TRUE, abbr = FALSE, locale = "de_DE.UTF-8"),
    wday_zh = wday(time, label = TRUE, abbr = FALSE, locale = "zh_CN.UTF-8"),
    wday_ru = wday(time, label = TRUE, abbr = FALSE, locale = "ru_RU.UTF-8"),
    wday_ja = wday(time, label = TRUE, abbr = FALSE, locale = "ja_JP.UTF-8"),
  ) %>%
  select(time, wday_en, wday_fr, wday_de, wday_zh, wday_ru, wday_ja)

## # A tibble: 30,415 x 7
##    time                wday_en  wday_fr wday_de    wday_zh wday_ru wday_ja
##    <dttm>              <ord>    <ord>   <ord>      <ord>   <ord>   <ord>  
##  1 2020-01-16 18:05:15 Thursday Jeudi   Donnerstag     
##  2 2020-01-16 18:02:55 Thursday Jeudi   Donnerstag     
##  3 2020-01-14 14:48:14 Tuesday  Mardi   Dienstag       
##  4 2020-01-14 14:41:17 Tuesday  Mardi   Dienstag       
##  5 2020-01-11 15:54:42 Saturday Samedi  Samstag        
##  6 2020-01-11 15:22:05 Saturday Samedi  Samstag        
##  7 2020-01-11 15:21:41 Saturday Samedi  Samstag        
##  8 2020-01-11 10:53:30 Saturday Samedi  Samstag        
##  9 2020-01-11 10:17:43 Saturday Samedi  Samstag        
## 10 2019-12-31 16:29:19 Tuesday  Mardi   Dienstag       
## #  with 30,405 more rows
…
Lets create a new column in our dataset corresponding to the edit time but with the indication that times should be given relative to New York City. We will also extract the hours from the original time as well as the time relative to New York City and provide the difference between these two times.

page_revisions %>%
  mutate(time = make_datetime(year, month, day, hour, minute, second)) %>%
  select(time) %>%
  mutate(time_nyc = with_tz(time, tzone = "America/New_York")) %>%
  mutate(hour_utc = hour(time), hour_nyc = hour(time_nyc)) %>%
  mutate(time_diff = time - time_nyc)

## # A tibble: 30,415 x 5
##    time                time_nyc            hour_utc hour_nyc time_diff
##    <dttm>              <dttm>                 <int>    <int> <drtn>   
##  1 2020-01-16 18:05:15 2020-01-16 13:05:15       18       13 0 secs   
##  2 2020-01-16 18:02:55 2020-01-16 13:02:55       18       13 0 secs   
##  3 2020-01-14 14:48:14 2020-01-14 09:48:14       14        9 0 secs   
##  4 2020-01-14 14:41:17 2020-01-14 09:41:17       14        9 0 secs   
##  5 2020-01-11 15:54:42 2020-01-11 10:54:42       15       10 0 secs   
##  6 2020-01-11 15:22:05 2020-01-11 10:22:05       15       10 0 secs   
##  7 2020-01-11 15:21:41 2020-01-11 10:21:41       15       10 0 secs   
##  8 2020-01-11 10:53:30 2020-01-11 05:53:30       10        5 0 secs   
##  9 2020-01-11 10:17:43 2020-01-11 05:17:43       10        5 0 secs   
## 10 2019-12-31 16:29:19 2019-12-31 11:29:19       16       11 0 secs   
## #  with 30,405 more rows
…
While certainly many editors are living in other English-speaking cities (London, Los Angeles, or Mumbai), it is generally easier for people to do the mental math for what times correspond with relative to their own timezone than relative to UTC.

The second function for manipulating timezoes in force_tz. Whereas with_tz assumes that datetimes were recorded correctly in UTC, the function force_tz indicates that a time was incorrectly recorded with a wrong timezone. With this function we are telling R that the time given is the time of the record in a different timezone. What if we replace the function with_tz above with force_tz?

page_revisions %>%
  mutate(time = make_datetime(year, month, day, hour, minute, second)) %>%
  select(time) %>%
  mutate(time_nyc = force_tz(time, tzone = "America/New_York")) %>%
  mutate(hour_utc = hour(time), hour_nyc = hour(time_nyc)) %>%
  mutate(time_diff = time - time_nyc)

## # A tibble: 30,415 x 5
##    time                time_nyc            hour_utc hour_nyc time_diff
##    <dttm>              <dttm>                 <int>    <int> <drtn>   
##  1 2020-01-16 18:05:15 2020-01-16 18:05:15       18       18 -5 hours 
##  2 2020-01-16 18:02:55 2020-01-16 18:02:55       18       18 -5 hours 
##  3 2020-01-14 14:48:14 2020-01-14 14:48:14       14       14 -5 hours 
##  4 2020-01-14 14:41:17 2020-01-14 14:41:17       14       14 -5 hours 
##  5 2020-01-11 15:54:42 2020-01-11 15:54:42       15       15 -5 hours 
##  6 2020-01-11 15:22:05 2020-01-11 15:22:05       15       15 -5 hours 
##  7 2020-01-11 15:21:41 2020-01-11 15:21:41       15       15 -5 hours 
##  8 2020-01-11 10:53:30 2020-01-11 10:53:30       10       10 -5 hours 
##  9 2020-01-11 10:17:43 2020-01-11 10:17:43       10       10 -5 hours 
## 10 2019-12-31 16:29:19 2019-12-31 16:29:19       16       16 -5 hours 
## #  with 30,405 more rows
…
At the start of this chapter, we considered time series to be a sequence of events without too much focus on the specific dates and times. This viewpoint can be a useful construct when we want to look at changes over time. For example, we have the overall size of each Wikipedia page after an edit. A measurement that would be useful is the difference in page size made by an edit. To add a variable to our dataset, we usually use the mutate function, and that will again work here. However, in this case we need to reference values that come before or after a certain value. This requires the use of window functions.

A window function transforms a variable in our dataset into a new variable with the same length, but unlike many other transformations takes into account the entire ordering of the data. Two examples of window functions that are useful when working with time series data are lag and lead, which give access to rows preceeding or following a row, respectively. Lets apply this to our page revision dataset to get the previous and next values of the page size variable. The data are, as given, arranged in reverse chronological order. Before applying the window functions, we will reverse the ordering to more easily talk about the relationship between rows.

page_revisions %>%
  mutate(time = make_datetime(year, month, day, hour, minute, second)) %>%
  arrange(item, time) %>%
  mutate(
    page_size_last = lag(page_size),
    page_size_next = lead(page_size)
  ) %>%
  select(item, time, page_size, page_size_last, page_size_next)

## # A tibble: 30,415 x 5
##    item  time                page_size page_size_last page_size_next
##    <chr> <dttm>                  <dbl>          <dbl>          <dbl>
##  1 Apple 2014-04-29 02:39:17     63192             NA          63188
##  2 Apple 2014-04-29 06:33:16     63188          63192          63194
##  3 Apple 2014-05-13 16:55:49     63194          63188          63259
##  4 Apple 2014-05-15 13:40:15     63259          63194          63304
##  5 Apple 2014-05-15 17:02:14     63304          63259          63304
##  6 Apple 2014-06-02 15:39:11     63304          63304          63343
##  7 Apple 2014-07-07 19:58:37     63343          63304          63432
##  8 Apple 2014-07-07 20:04:24     63432          63343          63554
##  9 Apple 2014-07-14 01:50:01     63554          63432          63432
## 10 Apple 2014-07-14 08:13:44     63432          63554          63468
## #  with 30,405 more rows
…
Notice that now, correctly, the dataset has a missing page_size_next for the final Apple record and a missing page_size_last for the first Asparagus record. Now, lets use this to compute the change in the page sizes for each of the revisions:

page_revisions %>%
  mutate(time = make_datetime(year, month, day, hour, minute, second)) %>%
  arrange(item, time) %>%
  group_by(item) %>%
  mutate(
    page_size_diff = page_size - lag(page_size)
  ) %>%
  ungroup() %>%
  select(item, time, page_size, page_size_diff)

## # A tibble: 30,415 x 4
##    item  time                page_size page_size_diff
##    <chr> <dttm>                  <dbl>          <dbl>
##  1 Apple 2014-04-29 02:39:17     63192             NA
##  2 Apple 2014-04-29 06:33:16     63188             -4
##  3 Apple 2014-05-13 16:55:49     63194              6
##  4 Apple 2014-05-15 13:40:15     63259             65
##  5 Apple 2014-05-15 17:02:14     63304             45
##  6 Apple 2014-06-02 15:39:11     63304              0
##  7 Apple 2014-07-07 19:58:37     63343             39
##  8 Apple 2014-07-07 20:04:24     63432             89
##  9 Apple 2014-07-14 01:50:01     63554            122
## 10 Apple 2014-07-14 08:13:44     63432           -122
## #  with 30,405 more rows
In the above output, notice that one revision appears to completely revert another revision, by deleting the exact same number of bytes that were previously added. If we wanted to find these reversion in the dataset, we could apply the lag function several times. As an alternative, we can also give a parameter to lag (as well as lead) to indicate that we want to go back (or forward) more than one row. Lets put this together to indicate which commits seem to be a reversion (the page size exactly matches the page size from two commits prior) as well as the overall size of the reversion.

page_revisions %>%
  mutate(time = make_datetime(year, month, day, hour, minute, second)) %>%
  arrange(item, time) %>%
  group_by(item) %>%
  mutate(
    page_size_diff = page_size - lag(page_size),
    revision = (page_size == lag(page_size, 2))
  ) %>%
  ungroup() %>%
  select(item, time, page_size_diff, revision) %>%
  filter(revision)

## # A tibble: 6,609 x 4
##    item  time                page_size_diff revision
##    <chr> <dttm>                       <dbl> <lgl>   
##  1 Apple 2014-07-14 08:13:44           -122 TRUE    
##  2 Apple 2014-08-23 17:35:04              2 TRUE    
##  3 Apple 2014-09-03 00:20:19            -31 TRUE    
##  4 Apple 2014-09-03 00:34:25            -22 TRUE    
##  5 Apple 2014-09-03 00:36:43            -31 TRUE    
##  6 Apple 2014-12-17 03:44:24            -45 TRUE    
##  7 Apple 2015-01-13 19:24:23           -555 TRUE    
##  8 Apple 2015-03-06 17:32:42           -106 TRUE    
##  9 Apple 2015-04-29 01:14:26           -106 TRUE    
## 10 Apple 2015-05-08 07:02:27              5 TRUE    
## #  with 6,599 more rows
…
